-------------------------------------------------------------------------------
Test set: com.grosa.mercurius.MercuriusApplicationTests
-------------------------------------------------------------------------------
Tests run: 1, Failures: 0, Errors: 0, Skipped: 0, Time elapsed: 11.087 sec - in com.grosa.mercurius.MercuriusApplicationTests
